%YAML 1.1
%TAG !u! tag:unity3d.com,2011:
--- !u!114 &-2117432064169234441
MonoBehaviour:
  m_ObjectHideFlags: 11
  m_CorrespondingSourceObject: {fileID: 0}
  m_PrefabInstance: {fileID: 0}
  m_PrefabAsset: {fileID: 0}
  m_GameObject: {fileID: 0}
  m_Enabled: 1
  m_EditorHideFlags: 0
  m_Script: {fileID: 11500000, guid: da692e001514ec24dbc4cca1949ff7e8, type: 3}
  m_Name: 
  m_EditorClassIdentifier: 
  version: 12
  hdPluginSubTargetMaterialVersions:
    m_Keys: []
    m_Values: 
--- !u!21 &2100000
Material:
  serializedVersion: 8
  m_ObjectHideFlags: 0
  m_CorrespondingSourceObject: {fileID: 0}
  m_PrefabInstance: {fileID: 0}
  m_PrefabAsset: {fileID: 0}
  m_Name: FlameMaterial
  m_Shader: {fileID: -6465566751694194690, guid: ae1baa251c6f0ea49a1d24bf4df4642a, type: 3}
  m_ValidKeywords:
  - _DISABLE_SSR_TRANSPARENT
  - _ENABLE_FOG_ON_TRANSPARENT
  - _SURFACE_TYPE_TRANSPARENT
  m_InvalidKeywords:
  - _MATERIAL_AFFECTS_ALBEDO
  - _MATERIAL_AFFECTS_MASKMAP
  - _MATERIAL_AFFECTS_NORMAL
  m_LightmapFlags: 4
  m_EnableInstancingVariants: 1
  m_DoubleSidedGI: 0
  m_CustomRenderQueue: 3000
  stringTagMap:
    MotionVector: User
    RenderType: Transparent
  disabledShaderPasses:
  - TransparentDepthPrepass
  - TransparentDepthPostpass
  - TransparentBackface
  - RayTracingPrepass
  - MOTIONVECTORS
  m_SavedProperties:
    serializedVersion: 3
    m_TexEnvs:
    - _MainTexture:
        m_Texture: {fileID: 2800000, guid: 36cc02496a90c9d46814ced94ef24cf7, type: 3}
        m_Scale: {x: 1, y: 1}
        m_Offset: {x: 0, y: 0}
    - unity_Lightmaps:
        m_Texture: {fileID: 0}
        m_Scale: {x: 1, y: 1}
        m_Offset: {x: 0, y: 0}
    - unity_LightmapsInd:
        m_Texture: {fileID: 0}
        m_Scale: {x: 1, y: 1}
        m_Offset: {x: 0, y: 0}
    - unity_ShadowMasks:
        m_Texture: {fileID: 0}
        m_Scale: {x: 1, y: 1}
        m_Offset: {x: 0, y: 0}
    m_Ints: []
    m_Floats:
    - _AddPrecomputedVelocity: 0
    - _AffectAlbedo: 1
    - _AffectEmission: 1
    - _AffectMetal: 1
    - _AffectNormal: 1
    - _AffectSmoothness: 1
    - _AlphaCutoffEnable: 0
    - _AlphaDstBlend: 1
    - _AlphaSrcBlend: 1
    - _AlphaToMask: 0
    - _AlphaToMaskInspectorValue: 0
    - _BlendMode: 1
    - _ConservativeDepthOffsetEnable: 0
    - _CullMode: 2
    - _CullModeForward: 2
    - _DecalColorMask0: 15
    - _DecalColorMask1: 15
    - _DecalColorMask2: 11
    - _DecalColorMask3: 8
    - _DecalMeshBiasType: 0
    - _DecalMeshDepthBias: 0
    - _DecalMeshViewBias: 0
    - _DecalStencilRef: 16
    - _DecalStencilWriteMask: 16
    - _DepthOffsetEnable: 0
    - _DiffusionProfileHash: 0
    - _DissolveAmount: -1
    - _DistorsionAmount: -0.07
    - _DistorsionScale: 10
    - _DoubleSidedEnable: 0
    - _DoubleSidedGIMode: 0
    - _DoubleSidedNormalMode: 2
    - _DrawOrder: 0
    - _DstBlend: 1
    - _EnableBlendModePreserveSpecularLighting: 1
    - _EnableFogOnTransparent: 1
    - _OpaqueCullMode: 2
    - _RayTracing: 0
    - _ReceivesSSR: 1
    - _ReceivesSSRTransparent: 0
    - _RefractionModel: 0
    - _RenderQueueType: 4
    - _RequireSplitLighting: 0
    - _SrcBlend: 1
    - _StencilRef: 0
    - _StencilRefDepth: 0
    - _StencilRefDistortionVec: 4
    - _StencilRefGBuffer: 2
    - _StencilRefMV: 32
    - _StencilWriteMask: 6
    - _StencilWriteMaskDepth: 8
    - _StencilWriteMaskDistortionVec: 4
    - _StencilWriteMaskGBuffer: 14
    - _StencilWriteMaskMV: 40
    - _SupportDecals: 1
    - _SurfaceType: 1
    - _TransparentBackfaceEnable: 0
    - _TransparentCullMode: 2
    - _TransparentDepthPostpassEnable: 0
    - _TransparentDepthPrepassEnable: 0
    - _TransparentSortPriority: 0
    - _TransparentWritingMotionVec: 0
    - _TransparentZWrite: 0
    - _UseShadowThreshold: 0
    - _ZTestDepthEqualForOpaque: 4
    - _ZTestGBuffer: 4
    - _ZTestTransparent: 4
    - _ZWrite: 0
    m_Colors:
    - _Color: {r: 5.992157, g: 0.7529412, b: 0, a: 1}
    - _DiffusionProfileAsset: {r: 0, g: 0, b: 0, a: 0}
    - _DissolveSpeed: {r: -0.3, g: -0.5, b: 0, a: 0}
    - _DistorsionSpeed: {r: 0, g: -0.4, b: 0, a: 0}
    - _DoubleSidedConstants: {r: 1, g: 1, b: -1, a: 0}
    - _EmissionColor: {r: 1, g: 1, b: 1, a: 1}
  m_BuildTextureStacks: []
