Library\Bee\artifacts\mvdfrm\Unity.Burst.Editor.ref.dll_4F7B73E229D756B2.mvfrm
Library\Bee\artifacts\mvdfrm\Unity.Burst.ref.dll_A9D47564F0C574EF.mvfrm
Library\Bee\artifacts\mvdfrm\Unity.EditorCoroutines.Editor.ref.dll_A9E741B2F4D7FC42.mvfrm
Library\Bee\artifacts\mvdfrm\Unity.Mathematics.Editor.ref.dll_BC6BEDEBC6F8BA8C.mvfrm
Library\Bee\artifacts\mvdfrm\Unity.Mathematics.ref.dll_09002A919DF91B75.mvfrm
Library\Bee\artifacts\mvdfrm\Unity.Performance.Profile-Analyzer.Editor.ref.dll_7F7FA9B9E03669D2.mvfrm
Library\Bee\artifacts\mvdfrm\Unity.PlasticSCM.Editor.ref.dll_038935ADFCD4A11D.mvfrm
Library\Bee\artifacts\mvdfrm\Unity.Recorder.Base.ref.dll_FCBE19CF0D5CBB60.mvfrm
Library\Bee\artifacts\mvdfrm\Unity.Recorder.Editor.ref.dll_196917193214703C.mvfrm
Library\Bee\artifacts\mvdfrm\Unity.Recorder.ref.dll_285554614AB1CAC5.mvfrm
Library\Bee\artifacts\mvdfrm\Unity.RenderPipelines.Core.Editor.ref.dll_5F7FF7A966BF64B8.mvfrm
Library\Bee\artifacts\mvdfrm\Unity.RenderPipelines.Core.Runtime.ref.dll_7D87AD5D9C29EDF3.mvfrm
Library\Bee\artifacts\mvdfrm\Unity.RenderPipelines.Core.ShaderLibrary.ref.dll_D525208FA1B27961.mvfrm
Library\Bee\artifacts\mvdfrm\Unity.RenderPipelines.HighDefinition.Config.Runtime.ref.dll_DF3EBBCD9BA12EE1.mvfrm
Library\Bee\artifacts\mvdfrm\Unity.RenderPipelines.HighDefinition.Editor.ref.dll_8D277AB35407ECD2.mvfrm
Library\Bee\artifacts\mvdfrm\Unity.RenderPipelines.HighDefinition.Runtime.ref.dll_2BAA81FA96CA4F39.mvfrm
Library\Bee\artifacts\mvdfrm\Unity.RenderPipelines.ShaderGraph.ShaderGraphLibrary.ref.dll_E04A448D99127221.mvfrm
Library\Bee\artifacts\mvdfrm\Unity.Rider.Editor.ref.dll_07D7D7B7487B1198.mvfrm
Library\Bee\artifacts\mvdfrm\Unity.Searcher.Editor.ref.dll_131E0B0FB16513F5.mvfrm
Library\Bee\artifacts\mvdfrm\Unity.Services.Core.Analytics.ref.dll_629B993A258DF026.mvfrm
Library\Bee\artifacts\mvdfrm\Unity.Services.Core.Environments.ref.dll_5B2DDA4F5201DC36.mvfrm
Library\Bee\artifacts\mvdfrm\Unity.Services.Core.ref.dll_20594DC17355841E.mvfrm
Library\Bee\artifacts\mvdfrm\Unity.ShaderGraph.Editor.ref.dll_319B33408212A519.mvfrm
Library\Bee\artifacts\mvdfrm\Unity.TestTools.CodeCoverage.Editor.OpenCover.Model.ref.dll_785F74917A23DD9A.mvfrm
Library\Bee\artifacts\mvdfrm\Unity.TestTools.CodeCoverage.Editor.OpenCover.Mono.Reflection.ref.dll_FA96BB8C3E5A37A7.mvfrm
Library\Bee\artifacts\mvdfrm\Unity.TestTools.CodeCoverage.Editor.ref.dll_BD81B1708A4B02E0.mvfrm
Library\Bee\artifacts\mvdfrm\Unity.TextMeshPro.Editor.ref.dll_37E92434B2D8A6CF.mvfrm
Library\Bee\artifacts\mvdfrm\Unity.TextMeshPro.ref.dll_A4B478B3CE6E8702.mvfrm
Library\Bee\artifacts\mvdfrm\Unity.Timeline.Editor.ref.dll_0DA365A2C678CBF9.mvfrm
Library\Bee\artifacts\mvdfrm\Unity.Timeline.ref.dll_733236CB90539738.mvfrm
Library\Bee\artifacts\mvdfrm\Unity.VSCode.Editor.ref.dll_4366BA9A3B756B20.mvfrm
Library\Bee\artifacts\mvdfrm\Unity.VisualEffectGraph.Editor.ref.dll_7773EDBB463BFC55.mvfrm
Library\Bee\artifacts\mvdfrm\Unity.VisualEffectGraph.Runtime.ref.dll_B1A16512ACB78A06.mvfrm
Library\Bee\artifacts\mvdfrm\Unity.VisualScripting.Core.Editor.ref.dll_065CC54F8DD2A924.mvfrm
Library\Bee\artifacts\mvdfrm\Unity.VisualScripting.Core.ref.dll_2F2D99604E6B235D.mvfrm
Library\Bee\artifacts\mvdfrm\Unity.VisualScripting.Flow.Editor.ref.dll_838DADFE9CB13465.mvfrm
Library\Bee\artifacts\mvdfrm\Unity.VisualScripting.Flow.ref.dll_763E79B6D074980C.mvfrm
Library\Bee\artifacts\mvdfrm\Unity.VisualScripting.SettingsProvider.Editor.ref.dll_DB47A982A779F40F.mvfrm
Library\Bee\artifacts\mvdfrm\Unity.VisualScripting.Shared.Editor.ref.dll_634EB3DA1CD7E5BE.mvfrm
Library\Bee\artifacts\mvdfrm\Unity.VisualScripting.State.Editor.ref.dll_8F55C37B46854258.mvfrm
Library\Bee\artifacts\mvdfrm\Unity.VisualScripting.State.ref.dll_06ABD95DCD3386E9.mvfrm
Library\Bee\artifacts\mvdfrm\Unity.VisualStudio.Editor.ref.dll_0788C6E0BDFBBC54.mvfrm
Library\Bee\artifacts\mvdfrm\UnityEditor.UI.ref.dll_5DAE2CC8CF4B8C9E.mvfrm
Library\Bee\artifacts\mvdfrm\UnityEngine.UI.ref.dll_1A140323D56DB509.mvfrm
Library\Bee\artifacts\mvdfrm\Unity.Burst.Cecil.dll_BD3121515C97AF64.mvfrm
Library\Bee\artifacts\mvdfrm\Unity.Burst.Cecil.Mdb.dll_ACB678C2AA3DABA1.mvfrm
Library\Bee\artifacts\mvdfrm\Unity.Burst.Cecil.Pdb.dll_C408F13228F2AD24.mvfrm
Library\Bee\artifacts\mvdfrm\Unity.Burst.Cecil.Rocks.dll_8E120C5E2135F9C4.mvfrm
Library\Bee\artifacts\mvdfrm\Unity.Burst.Unsafe.dll_B022F04C438287EF.mvfrm
Library\Bee\artifacts\mvdfrm\Unity.VisualScripting.Antlr3.Runtime.dll_BD220896C284CEB7.mvfrm
Library\Bee\artifacts\mvdfrm\UnityEditor.CoreModule.dll_676E70694D6F2F6F.mvfrm
Library\Bee\artifacts\mvdfrm\UnityEditor.DeviceSimulatorModule.dll_64E0113946C0A282.mvfrm
Library\Bee\artifacts\mvdfrm\UnityEditor.DiagnosticsModule.dll_2DDFE9655D896450.mvfrm
Library\Bee\artifacts\mvdfrm\UnityEditor.dll_5F173B933675BEF6.mvfrm
Library\Bee\artifacts\mvdfrm\UnityEditor.GraphViewModule.dll_C860F534FD031E27.mvfrm
Library\Bee\artifacts\mvdfrm\UnityEditor.PackageManagerUIModule.dll_B7AA43B80789D80B.mvfrm
Library\Bee\artifacts\mvdfrm\UnityEditor.QuickSearchModule.dll_B8EF6A72B66060A9.mvfrm
Library\Bee\artifacts\mvdfrm\UnityEditor.SceneTemplateModule.dll_EEB5605F718F3E4A.mvfrm
Library\Bee\artifacts\mvdfrm\UnityEditor.TextCoreFontEngineModule.dll_BAEE7D11A3DAB80D.mvfrm
Library\Bee\artifacts\mvdfrm\UnityEditor.TextCoreTextEngineModule.dll_02D6B383335E712B.mvfrm
Library\Bee\artifacts\mvdfrm\UnityEditor.UIBuilderModule.dll_1CE9A2516FBB975B.mvfrm
Library\Bee\artifacts\mvdfrm\UnityEditor.UIElementsModule.dll_8C72F78B6ED42E4B.mvfrm
Library\Bee\artifacts\mvdfrm\UnityEditor.UIElementsSamplesModule.dll_070F991F276500D2.mvfrm
Library\Bee\artifacts\mvdfrm\UnityEditor.UIServiceModule.dll_55DBB3B458F2E775.mvfrm
Library\Bee\artifacts\mvdfrm\UnityEditor.UnityConnectModule.dll_6C3B63ED677495A5.mvfrm
Library\Bee\artifacts\mvdfrm\UnityEngine.AccessibilityModule.dll_215ACBF6720565E7.mvfrm
Library\Bee\artifacts\mvdfrm\UnityEngine.AIModule.dll_DD164B2D80CCE5E3.mvfrm
Library\Bee\artifacts\mvdfrm\UnityEngine.AndroidJNIModule.dll_0ABBE05EB7F39D21.mvfrm
Library\Bee\artifacts\mvdfrm\UnityEngine.AnimationModule.dll_96E6715DD75FF2CD.mvfrm
Library\Bee\artifacts\mvdfrm\UnityEngine.ARModule.dll_96891030DDEA44AC.mvfrm
Library\Bee\artifacts\mvdfrm\UnityEngine.AssetBundleModule.dll_FCD89D6418C7159B.mvfrm
Library\Bee\artifacts\mvdfrm\UnityEngine.AudioModule.dll_E417BC5B4C20587F.mvfrm
Library\Bee\artifacts\mvdfrm\UnityEngine.ClothModule.dll_4B001956263D3763.mvfrm
Library\Bee\artifacts\mvdfrm\UnityEngine.ClusterInputModule.dll_EBD7D90318FC686B.mvfrm
Library\Bee\artifacts\mvdfrm\UnityEngine.ClusterRendererModule.dll_6A8CD3AAB67BB006.mvfrm
Library\Bee\artifacts\mvdfrm\UnityEngine.CoreModule.dll_8A8F43BBF5749A9A.mvfrm
Library\Bee\artifacts\mvdfrm\UnityEngine.CrashReportingModule.dll_486DCC20CF58D272.mvfrm
Library\Bee\artifacts\mvdfrm\UnityEngine.DirectorModule.dll_FC62D213D1E7BF37.mvfrm
Library\Bee\artifacts\mvdfrm\UnityEngine.dll_91BB826B94E94BDB.mvfrm
Library\Bee\artifacts\mvdfrm\UnityEngine.DSPGraphModule.dll_01B4337D44489058.mvfrm
Library\Bee\artifacts\mvdfrm\UnityEngine.GameCenterModule.dll_35092A797E348E12.mvfrm
Library\Bee\artifacts\mvdfrm\UnityEngine.GIModule.dll_7552943B1C7BCDFD.mvfrm
Library\Bee\artifacts\mvdfrm\UnityEngine.GridModule.dll_68005FAA0DC93091.mvfrm
Library\Bee\artifacts\mvdfrm\UnityEngine.HotReloadModule.dll_182F2F63B2930E4F.mvfrm
Library\Bee\artifacts\mvdfrm\UnityEngine.ImageConversionModule.dll_D67ED15B38A067FA.mvfrm
Library\Bee\artifacts\mvdfrm\UnityEngine.IMGUIModule.dll_1C775BC21251EC60.mvfrm
Library\Bee\artifacts\mvdfrm\UnityEngine.InputLegacyModule.dll_8E1DB882B0B8CB8C.mvfrm
Library\Bee\artifacts\mvdfrm\UnityEngine.InputModule.dll_4A8D840BC2587D23.mvfrm
Library\Bee\artifacts\mvdfrm\UnityEngine.JSONSerializeModule.dll_817255327140C671.mvfrm
Library\Bee\artifacts\mvdfrm\UnityEngine.LocalizationModule.dll_2A24A355B0785B64.mvfrm
Library\Bee\artifacts\mvdfrm\UnityEngine.ParticleSystemModule.dll_9B80156D3D6A5E00.mvfrm
Library\Bee\artifacts\mvdfrm\UnityEngine.PerformanceReportingModule.dll_5E7E2BF622794959.mvfrm
Library\Bee\artifacts\mvdfrm\UnityEngine.Physics2DModule.dll_E38C614E785CEA62.mvfrm
Library\Bee\artifacts\mvdfrm\UnityEngine.PhysicsModule.dll_82034D892C269930.mvfrm
Library\Bee\artifacts\mvdfrm\UnityEngine.ProfilerModule.dll_2EA90B4A6B414644.mvfrm
Library\Bee\artifacts\mvdfrm\UnityEngine.RuntimeInitializeOnLoadManagerInitializerModule.dll_27FF31D267D21F2B.mvfrm
Library\Bee\artifacts\mvdfrm\UnityEngine.ScreenCaptureModule.dll_9B5A02B785ACF2D3.mvfrm
Library\Bee\artifacts\mvdfrm\UnityEngine.SharedInternalsModule.dll_5A901030AFCE634A.mvfrm
Library\Bee\artifacts\mvdfrm\UnityEngine.SpriteMaskModule.dll_1E359D099FA4238C.mvfrm
Library\Bee\artifacts\mvdfrm\UnityEngine.SpriteShapeModule.dll_1639CABECE694DA5.mvfrm
Library\Bee\artifacts\mvdfrm\UnityEngine.StreamingModule.dll_4B7B5EAE26E7AA0B.mvfrm
Library\Bee\artifacts\mvdfrm\UnityEngine.SubstanceModule.dll_282672F7723AA819.mvfrm
Library\Bee\artifacts\mvdfrm\UnityEngine.SubsystemsModule.dll_88E3036B6DEC0B9F.mvfrm
Library\Bee\artifacts\mvdfrm\UnityEngine.TerrainModule.dll_9C49C8F801E4E21E.mvfrm
Library\Bee\artifacts\mvdfrm\UnityEngine.TerrainPhysicsModule.dll_9BFABE4056AD588D.mvfrm
Library\Bee\artifacts\mvdfrm\UnityEngine.TextCoreFontEngineModule.dll_394DF864B6D876D8.mvfrm
Library\Bee\artifacts\mvdfrm\UnityEngine.TextCoreTextEngineModule.dll_81362ED6465C2FF6.mvfrm
Library\Bee\artifacts\mvdfrm\UnityEngine.TextRenderingModule.dll_C49974C23CE472C8.mvfrm
Library\Bee\artifacts\mvdfrm\UnityEngine.TilemapModule.dll_3B46307919A1C327.mvfrm
Library\Bee\artifacts\mvdfrm\UnityEngine.TLSModule.dll_C5CEB08EE4CF1E04.mvfrm
Library\Bee\artifacts\mvdfrm\UnityEngine.UIElementsModule.dll_8D2164D371184796.mvfrm
Library\Bee\artifacts\mvdfrm\UnityEngine.UIElementsNativeModule.dll_0223F84D7902482D.mvfrm
Library\Bee\artifacts\mvdfrm\UnityEngine.UIModule.dll_D889E95ADD13EB8F.mvfrm
Library\Bee\artifacts\mvdfrm\UnityEngine.UmbraModule.dll_5EEC6873D94703F2.mvfrm
Library\Bee\artifacts\mvdfrm\UnityEngine.UNETModule.dll_1D358BA542839013.mvfrm
Library\Bee\artifacts\mvdfrm\UnityEngine.UnityAnalyticsModule.dll_BB1F8636E991AFFC.mvfrm
Library\Bee\artifacts\mvdfrm\UnityEngine.UnityConnectModule.dll_599AE7FC61FC9650.mvfrm
Library\Bee\artifacts\mvdfrm\UnityEngine.UnityCurlModule.dll_CA03128F4773E4BA.mvfrm
Library\Bee\artifacts\mvdfrm\UnityEngine.UnityTestProtocolModule.dll_C2D24F1181605628.mvfrm
Library\Bee\artifacts\mvdfrm\UnityEngine.UnityWebRequestAssetBundleModule.dll_F4BC7D90F85D6FCD.mvfrm
Library\Bee\artifacts\mvdfrm\UnityEngine.UnityWebRequestAudioModule.dll_D67A7FD4A8E413F1.mvfrm
Library\Bee\artifacts\mvdfrm\UnityEngine.UnityWebRequestModule.dll_E81DD90543950279.mvfrm
Library\Bee\artifacts\mvdfrm\UnityEngine.UnityWebRequestTextureModule.dll_621FB917EF3301E6.mvfrm
Library\Bee\artifacts\mvdfrm\UnityEngine.UnityWebRequestWWWModule.dll_4BF87432361BEC62.mvfrm
Library\Bee\artifacts\mvdfrm\UnityEngine.VehiclesModule.dll_7425CB934C118ED2.mvfrm
Library\Bee\artifacts\mvdfrm\UnityEngine.VFXModule.dll_46AD48FDBB3C8771.mvfrm
Library\Bee\artifacts\mvdfrm\UnityEngine.VideoModule.dll_092140C60EB27424.mvfrm
Library\Bee\artifacts\mvdfrm\UnityEngine.VirtualTexturingModule.dll_26B0ACBC51B0C8B8.mvfrm
Library\Bee\artifacts\mvdfrm\UnityEngine.VRModule.dll_2B5C0FE07ECE7107.mvfrm
Library\Bee\artifacts\mvdfrm\UnityEngine.WindModule.dll_00DE1EE486AB1903.mvfrm
Library\Bee\artifacts\mvdfrm\UnityEngine.XRModule.dll_5E1AD2E50808BE65.mvfrm
Library\Bee\artifacts\mvdfrm\Unity.Android.Gradle.dll_0198A1C5706030D7.mvfrm
Library\Bee\artifacts\mvdfrm\Unity.Android.Types.dll_279375E0089C7955.mvfrm