Library\Bee\artifacts\mvdfrm\Unity.Services.Core.Internal.ref.dll_1A693ED936C5C9EF.mvfrm
Library\Bee\artifacts\mvdfrm\Unity.Services.Core.ref.dll_8733AE466239FA82.mvfrm
Library\Bee\artifacts\mvdfrm\UnityEngine.UI.ref.dll_FAE6DBEA21006BE5.mvfrm
Library\Bee\artifacts\mvdfrm\Unity.Burst.Cecil.dll_BD3121515C97AF64.mvfrm
Library\Bee\artifacts\mvdfrm\Unity.Burst.Cecil.Mdb.dll_ACB678C2AA3DABA1.mvfrm
Library\Bee\artifacts\mvdfrm\Unity.Burst.Cecil.Pdb.dll_C408F13228F2AD24.mvfrm
Library\Bee\artifacts\mvdfrm\Unity.Burst.Cecil.Rocks.dll_8E120C5E2135F9C4.mvfrm
Library\Bee\artifacts\mvdfrm\Unity.Burst.Unsafe.dll_B022F04C438287EF.mvfrm
Library\Bee\artifacts\mvdfrm\Unity.VisualScripting.Antlr3.Runtime.dll_BD220896C284CEB7.mvfrm
Library\Bee\artifacts\mvdfrm\UnityEngine.AccessibilityModule.dll_988BE536140F0967.mvfrm
Library\Bee\artifacts\mvdfrm\UnityEngine.AIModule.dll_09BB06ED87C1EA63.mvfrm
Library\Bee\artifacts\mvdfrm\UnityEngine.AndroidJNIModule.dll_8F974E7348EAE1A1.mvfrm
Library\Bee\artifacts\mvdfrm\UnityEngine.AnimationModule.dll_74CE5A05B714B64D.mvfrm
Library\Bee\artifacts\mvdfrm\UnityEngine.ARModule.dll_C32DCBF0E4DF492C.mvfrm
Library\Bee\artifacts\mvdfrm\UnityEngine.AssetBundleModule.dll_E12209D49BBF491B.mvfrm
Library\Bee\artifacts\mvdfrm\UnityEngine.AudioModule.dll_0D30525FD9B83BFF.mvfrm
Library\Bee\artifacts\mvdfrm\UnityEngine.ClothModule.dll_7418AF5AB3D51AE3.mvfrm
Library\Bee\artifacts\mvdfrm\UnityEngine.ClusterInputModule.dll_AAD2034CE0013CEB.mvfrm
Library\Bee\artifacts\mvdfrm\UnityEngine.ClusterRendererModule.dll_1445CF6D9924C386.mvfrm
Library\Bee\artifacts\mvdfrm\UnityEngine.CoreModule.dll_E2216D5A9FAF2F1A.mvfrm
Library\Bee\artifacts\mvdfrm\UnityEngine.CrashReportingModule.dll_5C6AD3EE14BD36F2.mvfrm
Library\Bee\artifacts\mvdfrm\UnityEngine.DirectorModule.dll_05C63AB49EE373B7.mvfrm
Library\Bee\artifacts\mvdfrm\UnityEngine.dll_CA36D0E6417A8F5B.mvfrm
Library\Bee\artifacts\mvdfrm\UnityEngine.DSPGraphModule.dll_0B179C1E114444D8.mvfrm
Library\Bee\artifacts\mvdfrm\UnityEngine.GameCenterModule.dll_B9E4988E0F2BD292.mvfrm
Library\Bee\artifacts\mvdfrm\UnityEngine.GIModule.dll_A1F74FFB2370D27D.mvfrm
Library\Bee\artifacts\mvdfrm\UnityEngine.GridModule.dll_BF928948B803C511.mvfrm
Library\Bee\artifacts\mvdfrm\UnityEngine.HotReloadModule.dll_F617180B9247D1CF.mvfrm
Library\Bee\artifacts\mvdfrm\UnityEngine.ImageConversionModule.dll_8037CD1E1B497B7A.mvfrm
Library\Bee\artifacts\mvdfrm\UnityEngine.IMGUIModule.dll_458FF1C69FE9CFE0.mvfrm
Library\Bee\artifacts\mvdfrm\UnityEngine.InputLegacyModule.dll_726724F333B0FF0C.mvfrm
Library\Bee\artifacts\mvdfrm\UnityEngine.InputModule.dll_73A61A104FF060A3.mvfrm
Library\Bee\artifacts\mvdfrm\UnityEngine.JSONSerializeModule.dll_F8A36E72134A69F1.mvfrm
Library\Bee\artifacts\mvdfrm\UnityEngine.LocalizationModule.dll_E91ECD9F777D2FE4.mvfrm
Library\Bee\artifacts\mvdfrm\UnityEngine.ParticleSystemModule.dll_AF7D1D3A82CEC280.mvfrm
Library\Bee\artifacts\mvdfrm\UnityEngine.PerformanceReportingModule.dll_B728E3F92B685DD9.mvfrm
Library\Bee\artifacts\mvdfrm\UnityEngine.Physics2DModule.dll_C17449F65811ADE2.mvfrm
Library\Bee\artifacts\mvdfrm\UnityEngine.PhysicsModule.dll_EBAD511C76A5ECB0.mvfrm
Library\Bee\artifacts\mvdfrm\UnityEngine.ProfilerModule.dll_380C73EB383CFAC4.mvfrm
Library\Bee\artifacts\mvdfrm\UnityEngine.RuntimeInitializeOnLoadManagerInitializerModule.dll_F38B375F384DE2AB.mvfrm
Library\Bee\artifacts\mvdfrm\UnityEngine.ScreenCaptureModule.dll_128B1BF727B69653.mvfrm
Library\Bee\artifacts\mvdfrm\UnityEngine.SharedInternalsModule.dll_04490BF3927776CA.mvfrm
Library\Bee\artifacts\mvdfrm\UnityEngine.SpriteMaskModule.dll_A3110B1E309B680C.mvfrm
Library\Bee\artifacts\mvdfrm\UnityEngine.SpriteShapeModule.dll_FA83372F51618125.mvfrm
Library\Bee\artifacts\mvdfrm\UnityEngine.StreamingModule.dll_29634756069C6D8B.mvfrm
Library\Bee\artifacts\mvdfrm\UnityEngine.SubstanceModule.dll_060E5B9F51EF6B99.mvfrm
Library\Bee\artifacts\mvdfrm\UnityEngine.SubsystemsModule.dll_0DBE717FFEE3501F.mvfrm
Library\Bee\artifacts\mvdfrm\UnityEngine.TerrainModule.dll_05F3CC8B4C64359E.mvfrm
Library\Bee\artifacts\mvdfrm\UnityEngine.TerrainPhysicsModule.dll_AFF7C60D9C11BD0D.mvfrm
Library\Bee\artifacts\mvdfrm\UnityEngine.TextCoreFontEngineModule.dll_8E9D681A92F1FB58.mvfrm
Library\Bee\artifacts\mvdfrm\UnityEngine.TextCoreTextEngineModule.dll_D6859E8C2275B476.mvfrm
Library\Bee\artifacts\mvdfrm\UnityEngine.TextRenderingModule.dll_3BCA8E01DEEE1648.mvfrm
Library\Bee\artifacts\mvdfrm\UnityEngine.TilemapModule.dll_A4F0340C642116A7.mvfrm
Library\Bee\artifacts\mvdfrm\UnityEngine.TLSModule.dll_AD7AAE29900D9184.mvfrm
Library\Bee\artifacts\mvdfrm\UnityEngine.UIElementsModule.dll_11FCD2E8020F8C16.mvfrm
Library\Bee\artifacts\mvdfrm\UnityEngine.UIElementsNativeModule.dll_81AD0D6EA3583CAD.mvfrm
Library\Bee\artifacts\mvdfrm\UnityEngine.UIModule.dll_052EA51AE408F00F.mvfrm
Library\Bee\artifacts\mvdfrm\UnityEngine.UmbraModule.dll_8804FE7866DEE772.mvfrm
Library\Bee\artifacts\mvdfrm\UnityEngine.UNETModule.dll_74C7B543ECBE2493.mvfrm
Library\Bee\artifacts\mvdfrm\UnityEngine.UnityAnalyticsModule.dll_CF1C8E042EF6147C.mvfrm
Library\Bee\artifacts\mvdfrm\UnityEngine.UnityConnectModule.dll_1895124629016AD0.mvfrm
Library\Bee\artifacts\mvdfrm\UnityEngine.UnityCurlModule.dll_A7EAFB372728A83A.mvfrm
Library\Bee\artifacts\mvdfrm\UnityEngine.UnityTestProtocolModule.dll_3CF42E2BA3F6D9A8.mvfrm
Library\Bee\artifacts\mvdfrm\UnityEngine.UnityWebRequestAssetBundleModule.dll_3875A87570B9344D.mvfrm
Library\Bee\artifacts\mvdfrm\UnityEngine.UnityWebRequestAudioModule.dll_2F2537D7B1D32871.mvfrm
Library\Bee\artifacts\mvdfrm\UnityEngine.UnityWebRequestModule.dll_91D6D4C8263E15F9.mvfrm
Library\Bee\artifacts\mvdfrm\UnityEngine.UnityWebRequestTextureModule.dll_EAEFABD89649A666.mvfrm
Library\Bee\artifacts\mvdfrm\UnityEngine.UnityWebRequestWWWModule.dll_A147E3E8123570E2.mvfrm
Library\Bee\artifacts\mvdfrm\UnityEngine.VehiclesModule.dll_7D893434190D4352.mvfrm
Library\Bee\artifacts\mvdfrm\UnityEngine.VFXModule.dll_2E594698667AFAF1.mvfrm
Library\Bee\artifacts\mvdfrm\UnityEngine.VideoModule.dll_3239D6CA9C4A57A4.mvfrm
Library\Bee\artifacts\mvdfrm\UnityEngine.VirtualTexturingModule.dll_A639C1DD7C06BD38.mvfrm
Library\Bee\artifacts\mvdfrm\UnityEngine.VRModule.dll_5800CBA085C37587.mvfrm
Library\Bee\artifacts\mvdfrm\UnityEngine.WindModule.dll_5870488330E5AD83.mvfrm
Library\Bee\artifacts\mvdfrm\UnityEngine.XRModule.dll_8ABF8EA50EFDC2E5.mvfrm