%YAML 1.1
%TAG !u! tag:unity3d.com,2011:
--- !u!114 &-5756708996291991905
MonoBehaviour:
  m_ObjectHideFlags: 3
  m_CorrespondingSourceObject: {fileID: 0}
  m_PrefabInstance: {fileID: 0}
  m_PrefabAsset: {fileID: 0}
  m_GameObject: {fileID: 0}
  m_Enabled: 1
  m_EditorHideFlags: 0
  m_Script: {fileID: 11500000, guid: d877ec3e844f2ca46830012e8e79319b, type: 3}
  m_Name: PhysicallyBasedSky
  m_EditorClassIdentifier: 
  active: 1
  rotation:
    m_OverrideState: 0
    m_Value: 0
  skyIntensityMode:
    m_OverrideState: 0
    m_Value: 0
  exposure:
    m_OverrideState: 0
    m_Value: 0
  multiplier:
    m_OverrideState: 0
    m_Value: 1
  upperHemisphereLuxValue:
    m_OverrideState: 0
    m_Value: 1
  upperHemisphereLuxColor:
    m_OverrideState: 0
    m_Value: {x: 0, y: 0, z: 0}
  desiredLuxValue:
    m_OverrideState: 0
    m_Value: 20000
  updateMode:
    m_OverrideState: 0
    m_Value: 0
  updatePeriod:
    m_OverrideState: 0
    m_Value: 0
  includeSunInBaking:
    m_OverrideState: 0
    m_Value: 0
  type:
    m_OverrideState: 0
    m_Value: 1
  sphericalMode:
    m_OverrideState: 0
    m_Value: 1
  seaLevel:
    m_OverrideState: 0
    m_Value: 0
  planetaryRadius:
    m_OverrideState: 0
    m_Value: 6378100
  planetCenterPosition:
    m_OverrideState: 0
    m_Value: {x: 0, y: -6378100, z: 0}
  airDensityR:
    m_OverrideState: 0
    m_Value: 0.04534
  airDensityG:
    m_OverrideState: 0
    m_Value: 0.10237241
  airDensityB:
    m_OverrideState: 0
    m_Value: 0.23264056
  airTint:
    m_OverrideState: 0
    m_Value: {r: 0.9, g: 0.9, b: 1, a: 1}
  airMaximumAltitude:
    m_OverrideState: 0
    m_Value: 55261.973
  aerosolDensity:
    m_OverrideState: 0
    m_Value: 0.01192826
  aerosolTint:
    m_OverrideState: 1
    m_Value: {r: 0.9622642, g: 0.46751517, b: 0.46751517, a: 1}
  aerosolMaximumAltitude:
    m_OverrideState: 0
    m_Value: 8289.296
  aerosolAnisotropy:
    m_OverrideState: 0
    m_Value: 0
  numberOfBounces:
    m_OverrideState: 0
    m_Value: 3
  groundTint:
    m_OverrideState: 1
    m_Value: {r: 0.7264151, g: 0.17475079, b: 0.17979142, a: 1}
  groundColorTexture:
    m_OverrideState: 0
    m_Value: {fileID: 0}
  groundEmissionTexture:
    m_OverrideState: 0
    m_Value: {fileID: 0}
  groundEmissionMultiplier:
    m_OverrideState: 0
    m_Value: 1
  planetRotation:
    m_OverrideState: 0
    m_Value: {x: 0, y: 0, z: 0}
  spaceEmissionTexture:
    m_OverrideState: 0
    m_Value: {fileID: 0}
  spaceEmissionMultiplier:
    m_OverrideState: 0
    m_Value: 1
  spaceRotation:
    m_OverrideState: 0
    m_Value: {x: 0, y: 0, z: 0}
  colorSaturation:
    m_OverrideState: 0
    m_Value: 1
  alphaSaturation:
    m_OverrideState: 0
    m_Value: 1
  alphaMultiplier:
    m_OverrideState: 0
    m_Value: 1
  horizonTint:
    m_OverrideState: 1
    m_Value: {r: 0.8867924, g: 0.17986828, b: 0.17986828, a: 1}
  zenithTint:
    m_OverrideState: 0
    m_Value: {r: 1, g: 1, b: 1, a: 1}
  horizonZenithShift:
    m_OverrideState: 0
    m_Value: 0
  m_SkyVersion: 1
  m_ObsoleteEarthPreset:
    m_OverrideState: 0
    m_Value: 1
--- !u!114 &-1392429587835856404
MonoBehaviour:
  m_ObjectHideFlags: 3
  m_CorrespondingSourceObject: {fileID: 0}
  m_PrefabInstance: {fileID: 0}
  m_PrefabAsset: {fileID: 0}
  m_GameObject: {fileID: 0}
  m_Enabled: 1
  m_EditorHideFlags: 0
  m_Script: {fileID: 11500000, guid: 59b6606ef2548734bb6d11b9d160bc7e, type: 3}
  m_Name: HDRISky
  m_EditorClassIdentifier: 
  active: 1
  rotation:
    m_OverrideState: 0
    m_Value: 0
  skyIntensityMode:
    m_OverrideState: 0
    m_Value: 0
  exposure:
    m_OverrideState: 0
    m_Value: 0
  multiplier:
    m_OverrideState: 0
    m_Value: 1
  upperHemisphereLuxValue:
    m_OverrideState: 0
    m_Value: 1
  upperHemisphereLuxColor:
    m_OverrideState: 0
    m_Value: {x: 0, y: 0, z: 0}
  desiredLuxValue:
    m_OverrideState: 0
    m_Value: 20000
  updateMode:
    m_OverrideState: 0
    m_Value: 0
  updatePeriod:
    m_OverrideState: 0
    m_Value: 0
  includeSunInBaking:
    m_OverrideState: 0
    m_Value: 0
  hdriSky:
    m_OverrideState: 0
    m_Value: {fileID: 0}
  distortionMode:
    m_OverrideState: 0
    m_Value: 0
  flowmap:
    m_OverrideState: 0
    m_Value: {fileID: 0}
  upperHemisphereOnly:
    m_OverrideState: 0
    m_Value: 1
  scrollOrientation:
    m_OverrideState: 0
    m_Value:
      mode: 1
      customValue: 0
      additiveValue: 0
      multiplyValue: 1
  scrollSpeed:
    m_OverrideState: 0
    m_Value:
      mode: 1
      customValue: 100
      additiveValue: 0
      multiplyValue: 1
  enableBackplate:
    m_OverrideState: 0
    m_Value: 0
  backplateType:
    m_OverrideState: 0
    m_Value: 0
  groundLevel:
    m_OverrideState: 0
    m_Value: 0
  scale:
    m_OverrideState: 0
    m_Value: {x: 32, y: 32}
  projectionDistance:
    m_OverrideState: 0
    m_Value: 16
  plateRotation:
    m_OverrideState: 0
    m_Value: 0
  plateTexRotation:
    m_OverrideState: 0
    m_Value: 0
  plateTexOffset:
    m_OverrideState: 0
    m_Value: {x: 0, y: 0}
  blendAmount:
    m_OverrideState: 0
    m_Value: 0
  shadowTint:
    m_OverrideState: 0
    m_Value: {r: 0.5, g: 0.5, b: 0.5, a: 1}
  pointLightShadow:
    m_OverrideState: 0
    m_Value: 0
  dirLightShadow:
    m_OverrideState: 0
    m_Value: 0
  rectLightShadow:
    m_OverrideState: 0
    m_Value: 0
  m_SkyVersion: 1
  enableDistortion:
    m_OverrideState: 0
    m_Value: 0
  procedural:
    m_OverrideState: 0
    m_Value: 1
  scrollDirection:
    m_OverrideState: 0
    m_Value: 0
  m_ObsoleteScrollSpeed:
    m_OverrideState: 0
    m_Value: 1
--- !u!114 &11400000
MonoBehaviour:
  m_ObjectHideFlags: 0
  m_CorrespondingSourceObject: {fileID: 0}
  m_PrefabInstance: {fileID: 0}
  m_PrefabAsset: {fileID: 0}
  m_GameObject: {fileID: 0}
  m_Enabled: 1
  m_EditorHideFlags: 0
  m_Script: {fileID: 11500000, guid: d7fd9488000d3734a9e00ee676215985, type: 3}
  m_Name: Sky and Fog Settings Profile
  m_EditorClassIdentifier: 
  components:
  - {fileID: 636249829018501135}
  - {fileID: -5756708996291991905}
  - {fileID: 8889653105064314159}
  - {fileID: -1392429587835856404}
--- !u!114 &636249829018501135
MonoBehaviour:
  m_ObjectHideFlags: 3
  m_CorrespondingSourceObject: {fileID: 0}
  m_PrefabInstance: {fileID: 0}
  m_PrefabAsset: {fileID: 0}
  m_GameObject: {fileID: 0}
  m_Enabled: 1
  m_EditorHideFlags: 0
  m_Script: {fileID: 11500000, guid: 0d7593b3a9277ac4696b20006c21dde2, type: 3}
  m_Name: VisualEnvironment
  m_EditorClassIdentifier: 
  active: 1
  skyType:
    m_OverrideState: 1
    m_Value: 1
  cloudType:
    m_OverrideState: 1
    m_Value: 0
  skyAmbientMode:
    m_OverrideState: 0
    m_Value: 1
  windOrientation:
    m_OverrideState: 1
    m_Value: 0
  windSpeed:
    m_OverrideState: 1
    m_Value: 100
  fogType:
    m_OverrideState: 1
    m_Value: 0
--- !u!114 &8889653105064314159
MonoBehaviour:
  m_ObjectHideFlags: 3
  m_CorrespondingSourceObject: {fileID: 0}
  m_PrefabInstance: {fileID: 0}
  m_PrefabAsset: {fileID: 0}
  m_GameObject: {fileID: 0}
  m_Enabled: 1
  m_EditorHideFlags: 0
  m_Script: {fileID: 11500000, guid: 953beb541740ddc499d005ee80c9ff29, type: 3}
  m_Name: Fog
  m_EditorClassIdentifier: 
  active: 1
  quality:
    m_OverrideState: 0
    m_Value: 1
  enabled:
    m_OverrideState: 1
    m_Value: 1
  colorMode:
    m_OverrideState: 1
    m_Value: 1
  color:
    m_OverrideState: 0
    m_Value: {r: 0.5, g: 0.5, b: 0.5, a: 1}
  tint:
    m_OverrideState: 1
    m_Value: {r: 0.9245283, g: 0.20496617, b: 0.20496617, a: 1}
  maxFogDistance:
    m_OverrideState: 0
    m_Value: 5000
  mipFogMaxMip:
    m_OverrideState: 0
    m_Value: 0.5
  mipFogNear:
    m_OverrideState: 0
    m_Value: 0
  mipFogFar:
    m_OverrideState: 0
    m_Value: 1000
  baseHeight:
    m_OverrideState: 0
    m_Value: 0
  maximumHeight:
    m_OverrideState: 0
    m_Value: 50
  meanFreePath:
    m_OverrideState: 0
    m_Value: 400
  enableVolumetricFog:
    m_OverrideState: 1
    m_Value: 1
  albedo:
    m_OverrideState: 1
    m_Value: {r: 0.990566, g: 0.9578586, b: 0.9578586, a: 1}
  globalLightProbeDimmer:
    m_OverrideState: 0
    m_Value: 1
  depthExtent:
    m_OverrideState: 0
    m_Value: 64
  denoisingMode:
    m_OverrideState: 0
    m_Value: 2
  anisotropy:
    m_OverrideState: 0
    m_Value: 0
  sliceDistributionUniformity:
    m_OverrideState: 0
    m_Value: 0.75
  m_FogControlMode:
    m_OverrideState: 0
    m_Value: 0
  screenResolutionPercentage:
    m_OverrideState: 0
    m_Value: 12.5
  volumeSliceCount:
    m_OverrideState: 0
    m_Value: 64
  m_VolumetricFogBudget:
    m_OverrideState: 0
    m_Value: 0.33
  m_ResolutionDepthRatio:
    m_OverrideState: 0
    m_Value: 0.666
  directionalLightsOnly:
    m_OverrideState: 0
    m_Value: 0
